{
  "host": "localhost",
  "port": 8080,
  "path": "/al_chat",
  "auth": {
    "me": "http://unix:/tmp/altexo-accounts.sock:/users/auth/me/"
  },
  "sentry": {
    "url": "https://cdaedca4cea24fd19d2a9e66d0ef7b18:346c4bb4e8c24f0883e10df1f6a86aa0@sentry.altexo.com/4"
  },
  "kurento": {
    "url": "ws://localhost:8888/kurento"
  },
  "setup": {
    "bypass_join_confirmation": "false",
    "client_id": "62427805",
    "error_messages": [],
    "ice_server_transports": "",
    "ice_server_url": "https://networktraversal.googleapis.com/v1alpha/iceconfig?key=AIzaSyAJdh2HkajseEIltlZ3SIXO02Tze9sO3NY",
    "include_loopback_js": "",
    "is_initiator": "false",
    "is_loopback": "false",
    "media_constraints": "{\"audio\": true, \"video\": true}",
    "messages": [],
    "offer_options": "{}",
    "pc_config": "{\"rtcpMuxPolicy\": \"require\", \"bundlePolicy\": \"max-bundle\", \"iceServers\": []}",
    "pc_constraints": "{\"optional\": []}",
    "room_id": "523808310",
    "room_link": "https://appr.tc/r/523808310",
    "turn_url": "https://computeengineondemand.appspot.com/turn?username=62427805&key=4080218913",
    "version_info": "{\"gitHash\": \"c135495bc71e5da61344f098a8209a255f64985f\", \"branch\": \"master\", \"time\": \"Fri Apr 8 13:33:05 2016 +0200\"}",
    "warning_messages": [],
    "wss_post_url": "https://altexo.com/al_chat/api",
    "wss_url": "wss://altexo.com/al_chat/"
  }
}
